{
  "page": 2,
  "per_page": 10,
  "total": 12,
  "total_pages": 2,
  "data": [
    { "id": 11, "email": "george.edwards@reqres.in", "first_name": "George", "last_name": "Edwards", "avatar": "https://reqres.in/img/faces/11-image.jpg" },
    { "id": 12, "email": "rachel.howell@reqres.in", "first_name": "Rachel", "last_name": "Howell", "avatar": "https://reqres.in/img/faces/12-image.jpg" }
  ]
}
